MUS - selection methods
…
sum(accounts_receivable$amount)
#> [1] 13500000
samplingInterval <- sum(accounts_receivable$amount) / mySample$n
samplingInterval
#> [1] 8002.371

We see that all elements greater than 8002.37 should have an
inclusion probability of 1. How many of these does the population
contain?

significants <- accounts_receivable[accounts_receivable$amount > samplingInterval, 1:3]
significants[order(-significants$amount),]
#> # A tibble: 26 × 3
#>    debtor   invoice amount
#>     <int>     <int>  <dbl>
#>  1  47013 201719763 12050.
#>  2  91415 201734940 11981.
#>  3  33149 201706806 11586.
#>  4  21704 201739548 10795.
#>  5  39608 201726290 10520 
#>  6  65215 201723585 10377.
#>  7  55704 201710344  9918.
#>  8  26298 201725104  9806.
#>  9  22863 201707156  9786.
#> 10  51074 201712571  9710.
#> # ℹ 16 more rows
…
